[
    {
        "item": "div",
        "content": "this is div from JSON file"
    },

    {
        "item": "h1",
        "content": "this is h1 from JSON file"
    },

    {
        "item": "h4",
        "content": "this is h4 from JSON file"
    }
]